^C:\USERS\ARTUR\DOCUMENTS\VISUAL STUDIO 2010\PROJECTS\FTP CLIENT\FTP CLIENT\FORM1.RESX|C:\USERS\ARTUR\DOCUMENTS\VISUAL STUDIO 2010\PROJECTS\FTP CLIENT\FTP CLIENT\PROPERTIES\RESOURCES.RESX
C:\USERS\ARTUR\DOCUMENTS\VISUAL STUDIO 2010\PROJECTS\FTP CLIENT\FTP CLIENT\OBJ\X86\RELEASE\FTP_CLIENT.FORM1.RESOURCES
C:\USERS\ARTUR\DOCUMENTS\VISUAL STUDIO 2010\PROJECTS\FTP CLIENT\FTP CLIENT\OBJ\X86\RELEASE\FTP_CLIENT.PROPERTIES.RESOURCES.RESOURCES
